<?xml version="1.0" encoding="UTF-8" standalone="no"?>
<!-- Created with Inkscape (http://www.inkscape.org/) -->

<svg
   xmlns:dc="http://purl.org/dc/elements/1.1/"
   xmlns:cc="http://creativecommons.org/ns#"
   xmlns:rdf="http://www.w3.org/1999/02/22-rdf-syntax-ns#"
   xmlns:svg="http://www.w3.org/2000/svg"
   xmlns="http://www.w3.org/2000/svg"
   xmlns:sodipodi="http://sodipodi.sourceforge.net/DTD/sodipodi-0.dtd"
   xmlns:inkscape="http://www.inkscape.org/namespaces/inkscape"
   width="5.5786901mm"
   height="5.5786901mm"
   viewBox="0 0 5.5786901 5.5786901"
   version="1.1"
   id="svg3750"
   inkscape:version="0.92.3 (2405546, 2018-03-11)"
   sodipodi:docname="CheckBoxIcon.svg">
  <defs
     id="defs3744" />
  <sodipodi:namedview
     id="base"
     pagecolor="#ffffff"
     bordercolor="#666666"
     borderopacity="1.0"
     inkscape:pageopacity="0.0"
     inkscape:pageshadow="2"
     inkscape:zoom="7.9195959"
     inkscape:cx="-4.7849511"
     inkscape:cy="4.6738565"
     inkscape:document-units="mm"
     inkscape:current-layer="g4551"
     showgrid="false"
     fit-margin-top="0"
     fit-margin-left="0"
     fit-margin-right="0"
     fit-margin-bottom="0"
     inkscape:window-width="1366"
     inkscape:window-height="715"
     inkscape:window-x="-8"
     inkscape:window-y="-8"
     inkscape:window-maximized="1" />
  <metadata
     id="metadata3747">
    <rdf:RDF>
      <cc:Work
         rdf:about="">
        <dc:format>image/svg+xml</dc:format>
        <dc:type
           rdf:resource="http://purl.org/dc/dcmitype/StillImage" />
        <dc:title></dc:title>
      </cc:Work>
    </rdf:RDF>
  </metadata>
  <g
     inkscape:label="Layer 1"
     inkscape:groupmode="layer"
     id="layer1"
     transform="translate(-114.38329,-106.73448)">
    <g
       id="g4551"
       transform="matrix(1.0351562,0,0,1.0351562,-82.293969,-145.80116)">
      <g
         id="g4573"
         inkscape:export-xdpi="874.18365"
         inkscape:export-ydpi="874.18365"
         inkscape:export-filename="C:\Users\frydrmal\Documents\AndroidApp\03_Resources\radioButton\XXXHDPI\selectedCheckBox.png">
        <rect
           style="fill:none;stroke:#3498db;stroke-width:0.57431883;stroke-miterlimit:4;stroke-dasharray:none;stroke-opacity:1"
           y="244.24612"
           x="190.28482"
           height="4.8149066"
           width="4.8149066"
           id="rect3762" />
        <path
           inkscape:connector-curvature="0"
           id="path4569"
           d="m 191.3206,247.09392 0.86302,0.73672 2.06283,-2.52592"
           style="fill:none;stroke:#3498db;stroke-width:0.5925352;stroke-linecap:round;stroke-linejoin:round;stroke-miterlimit:4;stroke-dasharray:none;stroke-opacity:1" />
      </g>
    </g>
  </g>
</svg>
